<svg width="40" height="40" viewBox="0 0 40 40" fill="none" xmlns="http://www.w3.org/2000/svg">
<rect width="40" height="40" rx="20" transform="matrix(-1 0 0 1 40 0)" fill="#F8F8F8"/>
<path opacity="0.5" d="M15.0776 20.8264L20.4774 26.416C20.8209 26.7718 21.3779 26.7718 21.7212 26.416C22.0645 26.0606 22.0645 25.4841 21.7212 25.1287L16.9432 20.1828L21.721 15.237C22.0644 14.8814 22.0644 14.305 21.721 13.9495C21.3777 13.594 20.8208 13.594 20.4773 13.9495L15.0775 19.5393C14.9058 19.7171 14.8201 19.9498 14.8201 20.1827C14.8201 20.4158 14.906 20.6487 15.0776 20.8264Z" fill="black"/>
</svg>
