<svg width="9" height="15" viewBox="0 0 9 15" fill="none" xmlns="http://www.w3.org/2000/svg">
<path fill-rule="evenodd" clip-rule="evenodd" d="M5.41572 0.435353C6.27539 -0.568769 7.85434 0.307521 7.52796 1.60757L6.46445 5.83754L8.22506 6.56874C9.01762 6.89791 9.25532 7.94294 8.68877 8.60511L3.58428 14.5646C2.72461 15.5688 1.14566 14.6925 1.47204 13.3924L2.53555 9.16246L0.774937 8.43126C-0.0176167 8.10273 -0.255321 7.05706 0.311228 6.39489L5.41572 0.435353ZM6.46599 1L1 6.75319L3.9658 7.86322L2.53401 13L8 7.24681L5.0342 6.13678L6.46599 1Z" fill="white"/>
</svg>
